{
  "customerToken": {
    "accountOwnerName": null,
    "accountType": "POSTPAID",
    "applicationUserId": "vkuperm",
    "authorizedMsisdn": null,
    "ban": "990117828",
    "expirationTime": 1650576452000,
    "interactionId": "care123890",
    "levelOfPermissions": null,
    "msisdn": null,
    "otpVerificationStatus": null,
    "rslDealerId": null,
    "rslValidationType": null,
    "sourceApplication": "ACCOUNT_REVIEW",
    "storeId": null,
    "verificationStatus": "verified",
    "verifiedCustomerName": null
  },
  "hash": "e7f73c32ea1ed6444c6f2fe39942a5bc775d84f0ab7439de0ee30592966c34079be8dc66e79f521148fe6bf6fa9d131f021a77c85ada5780095cfe8dbd15c417"
}
