{
  "id": "mrsdszrsmm3ggljzmq3wmljuha3dgljymi3wkljugi4wgmrqhbtgkobtme=",
  "state": null,
  "createdDate": "2022-02-25T12:33:14Z",
  "accessories": [
    {
      "id": "ge4tinjxmq2wkljvmm3dsljuge4tcllbme3dsllggyyteyjvgq3gcytghe=",
      "lineId": "mfrtgobymeztsljwmrstsljumnrtollcgu4wkljvg5rwcnrug5qwczjygq=",
      "familyName": "Apple 20W USB-C Power Adapter",
      "manufacturer": "Apple",
      "upc": "194252156940",
      "description": "&middot;Charge devices fast!<br>",
      "quantity": 1,
      "options": {
        "color": "White",
        "memory": "16",
        "memoryUnit": "GB"
      },
      "listPrice": 19.989999771118164,
      "monthlyPrice": 0.0,
      "contractTerm": 0,
      "contractFrequency": "",
      "deposit": {
        "isRefundable": false,
        "amount": null
      },
      "credit": null,
      "financedAmount": 0.0,
      "promotions": [],
      "downPaymentAmount": 0.0
    },
    {
      "id": "mqztizrzmeztollghfsdkljug4ydmljzgyzdaljxmi4wgyzqgzsgmmjxha=",
      "lineId": "mfrtgobymeztsljwmrstsljumnrtollcgu4wkljvg5rwcnrug5qwczjygq=",
      "familyName": "Apple 20W USB-C Power Adapter",
      "manufacturer": "Apple",
      "upc": "194252156940",
      "description": "&middot;Charge devices fast!<br>",
      "quantity": 1,
      "options": {
        "color": "White",
        "memory": "16",
        "memoryUnit": "GB"
      },
      "listPrice": 19.989999771118164,
      "monthlyPrice": 0.0,
      "contractTerm": 0,
      "contractFrequency": "",
      "deposit": {
        "isRefundable": false,
        "amount": null
      },
      "credit": null,
      "financedAmount": 10.0,
      "promotions": [],
      "downPaymentAmount": 0.0
    },
    {
      "id": "gu3dqzlgge4wmljug5qtgljuhazwiljzgbstcljugu2temtdg5sdazbumi=",
      "lineId": "mfrtgobymeztsljwmrstsljumnrtollcgu4wkljvg5rwcnrug5qwczjygq=",
      "familyName": "Apple 20W USB-C Power Adapter",
      "manufacturer": "Apple",
      "upc": "194252156940",
      "description": "&middot;Charge devices fast!<br>",
      "quantity": 1,
      "options": {
        "color": "White",
        "memory": "16",
        "memoryUnit": "GB"
      },
      "listPrice": 19.989999771118164,
      "monthlyPrice": 0.0,
      "contractTerm": 0,
      "contractFrequency": "",
      "deposit": {
        "isRefundable": false,
        "amount": null
      },
      "credit": null,
      "financedAmount": 0.0,
      "promotions": [],
      "downPaymentAmount": 0.0
    }
  ],
  "devices": [
    {
      "id": "32w2sd",
      "lineId": "mfrtgobymeztsljwmrstsljumnrtollcgu4wkljvg5rwcnrug5qwczjygq=",
      "familyName": "iPhone 12",
      "manufacturer": "Apple",
      "upc": "65656565",
      "description": "Test",
      "quantity": 1,
      "options": {
        "color": "Gold",
        "memory": "256",
        "memoryUnit": "GB"
      },
      "listPrice": 200.0,
      "monthlyPrice": 50,
      "contractTerm": 12,
      "contractFrequency": "MONTHLY",
      "deposit": {
        "isRefundable": true,
        "amount": 60
      },
      "credit": {
        "recurringCredit": {
          "term": 24,
          "frequency": "MONTHLY",
          "amount": 30
        },
        "oneTimeCredit": 50
      },
      "promotions": [],
      "financedAmount": 20,
      "downPaymentAmount": 44
    },
    {
      "id": "32w2sd",
      "lineId": "mu4giojugq4doljrme2dqljugq2doljzmq3tsljzhe4wkmztmyywgnlggq=",
      "familyName": "iPhone 12",
      "manufacturer": "Apple",
      "upc": "65656565",
      "description": "Test",
      "quantity": 1,
      "options": {
        "color": "Gold",
        "memory": "256",
        "memoryUnit": "GB"
      },
      "listPrice": 200.0,
      "monthlyPrice": 50,
      "contractTerm": 12,
      "contractFrequency": "MONTHLY",
      "deposit": {
        "isRefundable": true,
        "amount": 60
      },
      "credit": {
        "recurringCredit": {
          "term": 24,
          "frequency": "Monthly",
          "amount": 30
        },
        "oneTimeCredit": 50
      },
      "promotions": [],
      "financedAmount": 20,
      "downPaymentAmount": 44
    }
  ],
  "lines": [
    {
      "id": "mfrtgobymeztsljwmrstsljumnrtollcgu4wkljvg5rwcnrug5qwczjygq=",
      "number": "3",
      "type": "HANDSET",
      "name": "Perry's Line",
      "phoneNumber": "7707888930",
      "listPrice": 59.970001220703125,
      "monthlyPrice": 0.0,
      "contractTerm": 0,
      "contractFrequency": null,
      "downPaymentAmount": 60,
      "financedAmount": 30,
      "deposit": {
        "isRefundable": true,
        "amount": 60
      },
      "credit": {
        "recurringCredit": {
          "term": 24,
          "frequency": "MONTHLY",
          "amount": 30
        },
        "oneTimeCredit": 50
      },
      "services": [
        {
          "name": "DEVICE_PROTECTION",
          "listPrice": 10,
          "monthlyPrice": 2
        }
      ],
      "charges": [
        {
          "type": "Activation",
          "name": "Activation charge",
          "description": "Test charge",
          "amount": 20.0
        }
      ],
      "promotions": []
    },
    {
      "id": "mu4giojugq4doljrme2dqljugq2doljzmq3tsljzhe4wkmztmyywgnlggq=",
      "number": "4",
      "type": "HANDSET",
      "name": "Perry's Line",
      "phoneNumber": "7707888930",
      "listPrice": 39.97999954223633,
      "monthlyPrice": 11.0,
      "contractTerm": 0,
      "contractFrequency": null,
      "downPaymentAmount": 60,
      "financedAmount": 30,
      "deposit": {
        "isRefundable": true,
        "amount": 60
      },
      "credit": {
        "recurringCredit": {
          "term": 24,
          "frequency": "Monthly",
          "amount": 30
        },
        "oneTimeCredit": 50
      },
      "services": [
        {
          "name": "DEVICE_PROTECTION",
          "listPrice": 10,
          "monthlyPrice": 2
        }
      ],
      "charges": [
        {
          "type": "Activation",
          "name": "Activation charge",
          "description": "Test charge",
          "amount": 20.0
        }
      ],
      "promotions": []
    }
  ],
  "total": 99.94999694824219,
  "subTotal": 60.0,
  "monthlyPayment": 56,
  "financedAmount": 600,
  "additionalDownPayment": 100,
  "tax": {
    "total": 60,
    "county": 20,
    "federal": 20,
    "state": 20,
    "monthlyLease": 0
  },
  "promotions": [],
  "deposit": {
    "isRefundable": true,
    "amount": 40
  },
  "credit": {
    "recurringCredit": {
      "term": 24,
      "frequency": "MONTHLY",
      "amount": 30
    },
    "oneTimeCredit": 50
  }
}
